             P             nB          edens            cs2
2.90926584e-01 4.42128228e-01 7.12110998e+01 6.24054000e-03
3.12812002e-01 4.63813385e-01 7.47180748e+01 1.98437572e-03
3.45714625e-01 5.66310066e-01 9.12989178e+01 2.58128003e-03
3.82078056e-01 6.53361711e-01 1.05386282e+02 3.08849533e-03
4.22266315e-01 7.33742111e-01 1.18398527e+02 3.79270539e-03
4.66681712e-01 8.06058283e-01 1.30109270e+02 4.87005020e-03
5.15768869e-01 8.68279384e-01 1.40188664e+02 6.15297856e-03
5.70019180e-01 9.22688107e-01 1.49005583e+02 7.43002552e-03
6.29975721e-01 9.72466449e-01 1.57075076e+02 9.42104826e-03
6.96238694e-01 1.01583758e+00 1.64108579e+02 1.18005777e-02
7.69471430e-01 1.05408977e+00 1.70314440e+02 1.45540851e-02
8.50407032e-01 1.08835259e+00 1.75875463e+02 9.83450896e-01
9.39855714e-01 1.08891273e+00 1.75966416e+02 9.83450896e-01
1.03871291e+00 1.08953146e+00 1.76066937e+02 9.83450896e-01
1.14796824e+00 1.09021490e+00 1.76178031e+02 9.83450896e-01
1.26871541e+00 1.09096975e+00 1.76300810e+02 9.83450896e-01
1.40216318e+00 1.09180344e+00 1.76436503e+02 9.83450896e-01
1.54964744e+00 1.09272412e+00 1.76586469e+02 9.83450896e-01
1.71264459e+00 1.09374081e+00 1.76752209e+02 9.38016251e-02
1.89278633e+00 1.10551052e+00 1.78672664e+02 1.18328503e-01
2.09187598e+00 1.11581171e+00 1.80355180e+02 1.43055848e-01
2.31190656e+00 1.12521828e+00 1.81893255e+02 1.69874519e-01
2.55508069e+00 1.13396257e+00 1.83324748e+02 2.02070336e-01
2.82383271e+00 1.14207620e+00 1.84654740e+02 2.44887747e-01
3.12085296e+00 1.14946481e+00 1.85867623e+02 2.87982491e-01
3.44911481e+00 1.15639770e+00 1.87007491e+02 3.29905019e-01
3.81190435e+00 1.16307464e+00 1.88107169e+02 3.65527581e-01
4.21285331e+00 1.16972214e+00 1.89204074e+02 4.22825352e-01
4.65597544e+00 1.17606011e+00 1.90252077e+02 4.68109209e-01
5.14570665e+00 1.18237274e+00 1.91298267e+02 5.23055662e-01
5.68694945e+00 1.18860091e+00 1.92333038e+02 5.72370539e-01
6.28512199e+00 1.19487392e+00 1.93378117e+02 6.28116253e-01
6.94621233e+00 1.20117253e+00 1.94430614e+02 6.72977793e-01
7.67683839e+00 1.20764828e+00 1.95516276e+02 7.15118480e-01
8.48431417e+00 1.21435922e+00 1.96645425e+02 7.62067462e-01
9.37672297e+00 1.22129170e+00 1.97816462e+02 7.98761863e-01
1.03629983e+01 1.22856992e+00 1.99051217e+02 8.30248183e-01
1.14530135e+01 1.23627218e+00 2.00364096e+02 8.58166381e-01
1.26576801e+01 1.24446528e+00 2.01767864e+02 8.80402090e-01
1.39890576e+01 1.25324189e+00 2.03280102e+02 9.03045441e-01
1.54604739e+01 1.26264048e+00 2.04909495e+02 9.20118332e-01
1.70866587e+01 1.27276684e+00 2.06676860e+02 9.35079209e-01
1.88838912e+01 1.28369924e+00 2.08598871e+02 9.46155948e-01
2.08701626e+01 1.29554576e+00 2.10698177e+02 9.55534356e-01
2.30653567e+01 1.30839863e+00 2.12995525e+02 9.63435745e-01
2.54914488e+01 1.32235590e+00 2.15513692e+02 9.72021817e-01
2.81727254e+01 1.33749108e+00 2.18272145e+02 9.78893644e-01
3.11360278e+01 1.35392010e+00 2.21299340e+02 9.83425142e-01
3.44110203e+01 1.37178135e+00 2.24629530e+02 9.87792367e-01
3.80304876e+01 1.39118557e+00 2.28293729e+02 9.90713246e-01
4.20306626e+01 1.41227697e+00 2.32331400e+02 9.93058638e-01
4.64515896e+01 1.43519273e+00 2.36783229e+02 9.94882102e-01
5.13375245e+01 1.46007784e+00 2.41694298e+02 3.32102186e-02
5.67373786e+01 2.27023919e+00 4.04290462e+02 3.32102186e-02
6.27052076e+01 3.15512880e+00 5.83989038e+02 3.32102186e-02
6.93007530e+01 4.12406923e+00 7.82588917e+02 3.32102186e-02
7.65900401e+01 5.18663524e+00 1.00207820e+03 3.32102186e-02
8.46460391e+01 6.35302979e+00 1.24465411e+03 3.32102186e-02
9.35493952e+01 7.63429740e+00 1.51274497e+03 9.99229556e-01
1.03389236e+02 7.68109965e+00 1.52259240e+03 9.99385723e-01
1.14264065e+02 7.73250367e+00 1.53347391e+03 9.99490791e-01
1.26282745e+02 7.78893366e+00 1.54549872e+03 9.99556004e-01
1.39565591e+02 7.85084675e+00 1.55878746e+03 9.99599577e-01
1.54245571e+02 7.91873395e+00 1.57347332e+03 9.99658285e-01
1.70469640e+02 7.99311990e+00 1.58970294e+03 9.99679144e-01
1.88400212e+02 8.07457056e+00 1.60763926e+03 9.99697945e-01
2.08216783e+02 8.16368811e+00 1.62746182e+03 9.99706078e-01
2.30117727e+02 8.26111532e+00 1.64936921e+03 9.99730401e-01
2.54322286e+02 8.36753296e+00 1.67358029e+03 9.99726862e-01
2.81072762e+02 8.48366780e+00 1.70033808e+03 9.99750941e-01
3.10636944e+02 8.61028222e+00 1.72990962e+03 9.99743230e-01
3.43310786e+02 8.74818804e+00 1.76259186e+03 9.99749282e-01
3.79421374e+02 8.89823365e+00 1.79871150e+03 9.99754754e-01
4.19330194e+02 9.06131145e+00 1.83863011e+03 9.99767210e-01
4.63436760e+02 9.23835459e+00 1.88274695e+03 9.99788304e-01
5.12182602e+02 9.43033731e+00 1.93150311e+03 9.99801007e-01
5.66055697e+02 9.63827836e+00 1.98538693e+03 9.99823540e-01
6.25595346e+02 9.86323384e+00 2.04493709e+03 9.99841144e-01
6.91397576e+02 1.01063037e+01 2.11074977e+03 9.99858086e-01
7.64121107e+02 1.03686276e+01 2.18348362e+03 9.99881339e-01
8.44493944e+02 1.06513843e+01 2.26386600e+03 9.99898074e-01
9.33320668e+02 1.09557969e+01 2.35270178e+03 9.99909839e-01
1.03149049e+03 1.12831306e+01 2.45088045e+03 9.99924202e-01
1.13998614e+03 1.16346909e+01 2.55938432e+03 9.99935717e-01
1.25989373e+03 1.20118300e+01 2.67929962e+03 9.99942335e-01
1.39241360e+03 1.24159478e+01 2.81182714e+03 9.99951254e-01
1.53887236e+03 1.28484903e+01 2.95829304e+03 9.99957666e-01
1.70073615e+03 1.33109579e+01 3.12016368e+03 9.99962766e-01
1.87962532e+03 1.38049062e+01 3.29905951e+03 9.99967668e-01
2.07733066e+03 1.43319496e+01 3.49677124e+03 9.99971960e-01
2.29583131e+03 1.48937671e+01 3.71527802e+03 9.99975967e-01
2.53731459e+03 1.54921063e+01 3.95676711e+03 9.99978470e-01
2.80419791e+03 1.61287896e+01 4.22365616e+03 9.99982207e-01
3.09915291e+03 1.68057177e+01 4.51861641e+03 9.99984570e-01
3.42513227e+03 1.75248786e+01 4.84460081e+03 9.99987017e-01
3.78539924e+03 1.82883515e+01 5.20487246e+03 9.99988731e-01
4.18356031e+03 1.90983150e+01 5.60303801e+03 9.99990714e-01
4.62360131e+03 1.99570525e+01 6.04308309e+03 9.99992369e-01
5.10992730e+03 2.08669611e+01 6.52941280e+03 9.99993364e-01
5.64740670e+03 2.18305583e+01 7.06689577e+03 9.99994579e-01
6.24142000e+03 2.28504894e+01 7.66091228e+03 9.99995608e-01